"Year","CPUE_nubmer_per_hour","Stock"
1966,0,"ple-nsea"
1967,1,"ple-nsea"
1968,98.5,"ple-nsea"
1969,75,"ple-nsea"
1970,44.332,"ple-nsea"
1971,25.5,"ple-nsea"
1972,32.666,"ple-nsea"
1973,89.83,"ple-nsea"
1974,112.5,"ple-nsea"
1975,140.663,"ple-nsea"
1976,204.073,"ple-nsea"
1977,264.25,"ple-nsea"
1978,604.837,"ple-nsea"
1979,270.664,"ple-nsea"
1980,94.5,"ple-nsea"
1981,434,"ple-nsea"
1982,673.5,"ple-nsea"
1983,367.832,"ple-nsea"
1984,373.664,"ple-nsea"
1985,503.25,"ple-nsea"
1986,561.676,"ple-nsea"
1987,511.504,"ple-nsea"
1988,878.709,"ple-nsea"
1989,731.168,"ple-nsea"
1990,490.173,"ple-nsea"
1991,358.5,"ple-nsea"
1992,771.17,"ple-nsea"
1993,966.168,"ple-nsea"
1994,723.833,"ple-nsea"
1995,370,"ple-nsea"
1996,846,"ple-nsea"
1997,555,"ple-nsea"
1998,889.335,"ple-nsea"
1999,458.001,"ple-nsea"
2000,482.502,"ple-nsea"
2001,575.676,"ple-nsea"
2002,660.845,"ple-nsea"
2003,694.675,"ple-nsea"
2004,558.336,"ple-nsea"
2005,689.453,"ple-nsea"
2006,949.31,"ple-nsea"
2007,955,"ple-nsea"
2008,895.228,"ple-nsea"
2009,760.315,"ple-nsea"
2010,2927.51,"ple-nsea"
2011,2966.829,"ple-nsea"
2012,4445.459,"ple-nsea"
2013,1585.749,"ple-nsea"
2014,1415.494,"ple-nsea"
2015,5123.611,"ple-nsea"
1966,944,"cod-347d"
1967,1585.917,"cod-347d"
1968,547.078,"cod-347d"
1969,214.5,"cod-347d"
1970,568,"cod-347d"
1971,1966,"cod-347d"
1972,2367.32,"cod-347d"
1973,2977.898,"cod-347d"
1974,1270.111,"cod-347d"
1975,1739.622,"cod-347d"
1976,1215.236,"cod-347d"
1977,2488.518,"cod-347d"
1978,1935.618,"cod-347d"
1979,831.518,"cod-347d"
1980,1429.843,"cod-347d"
1981,1218.862,"cod-347d"
1982,866.004,"cod-347d"
1983,1287.009,"cod-347d"
1984,1173.036,"cod-347d"
1985,1049.504,"cod-347d"
1986,1482.828,"cod-347d"
1987,1896.941,"cod-347d"
1988,819.423,"cod-347d"
1989,1360.015,"cod-347d"
1990,994.357,"cod-347d"
1991,633.834,"cod-347d"
1992,915.508,"cod-347d"
1993,1654.837,"cod-347d"
1994,1152.173,"cod-347d"
1995,1559.921,"cod-347d"
1996,760.5,"cod-347d"
1997,1225.828,"cod-347d"
1998,1225.162,"cod-347d"
1999,430.506,"cod-347d"
2000,631.009,"cod-347d"
2001,447.352,"cod-347d"
2002,632.367,"cod-347d"
2003,353.347,"cod-347d"
2004,1345.705,"cod-347d"
2005,267.943,"cod-347d"
2006,662.703,"cod-347d"
2007,625.936,"cod-347d"
2008,319.182,"cod-347d"
2009,224.201,"cod-347d"
2010,879.912,"cod-347d"
2011,419.883,"cod-347d"
2012,356.227,"cod-347d"
2013,397.043,"cod-347d"
2014,364.166,"cod-347d"
2015,607.416,"cod-347d"
1966,39858.003,"her-nsea"
1967,3586.637,"her-nsea"
1968,4561.649,"her-nsea"
1969,3516.5,"her-nsea"
1970,5120.25,"her-nsea"
1971,35874.5,"her-nsea"
1972,45507.001,"her-nsea"
1973,35556.159,"her-nsea"
1974,9305.243,"her-nsea"
1975,24675.613,"her-nsea"
1976,14235.307,"her-nsea"
1977,11760.977,"her-nsea"
1978,12298.305,"her-nsea"
1979,15984.77,"her-nsea"
1980,7228.666,"her-nsea"
1981,26771.666,"her-nsea"
1982,22283.833,"her-nsea"
1983,66931.086,"her-nsea"
1984,74583.584,"her-nsea"
1985,198507.592,"her-nsea"
1986,103668.444,"her-nsea"
1987,259733.434,"her-nsea"
1988,317890.888,"her-nsea"
1989,107159.153,"her-nsea"
1990,70488.17,"her-nsea"
1991,88358.618,"her-nsea"
1992,115647.67,"her-nsea"
1993,107582.334,"her-nsea"
1994,96560.833,"her-nsea"
1995,207886.168,"her-nsea"
1996,37240.5,"her-nsea"
1997,172862,"her-nsea"
1998,58164.501,"her-nsea"
1999,92529.507,"her-nsea"
2000,101898.666,"her-nsea"
2001,84110.511,"her-nsea"
2002,181953.343,"her-nsea"
2003,75926.259,"her-nsea"
2004,60360.125,"her-nsea"
2005,69685.218,"her-nsea"
2006,67604.128,"her-nsea"
2007,64736.444,"her-nsea"
2008,15802.381,"her-nsea"
2009,27525.594,"her-nsea"
2010,68376.412,"her-nsea"
2011,76205.222,"her-nsea"
2012,89041.342,"her-nsea"
2013,74963.675,"her-nsea"
2014,165354.657,"her-nsea"
2015,158458.75,"her-nsea"
